^C:\USERS\HO HANG\DOCUMENTS\VISUAL STUDIO 2010\PROJECTS\A1Q4\Q4\DEBUG\Q4.EXE.EMBED.MANIFEST.RES|C:\USERS\HO HANG\DOCUMENTS\VISUAL STUDIO 2010\PROJECTS\A1Q4\Q4\DEBUG\Q4.OBJ
/ERRORREPORT:PROMPT /OUT:"C:\Users\Ho Hang\documents\visual studio 2010\Projects\a1q4\Debug\q4.exe" /INCREMENTAL /NOLOGO kernel32.lib user32.lib gdi32.lib winspool.lib comdlg32.lib advapi32.lib shell32.lib ole32.lib oleaut32.lib uuid.lib odbc32.lib odbccp32.lib /MANIFEST /ManifestFile:"Debug\q4.exe.intermediate.manifest" /MANIFESTUAC:"level='asInvoker' uiAccess='false'" /DEBUG /PDB:"C:\Users\Ho Hang\documents\visual studio 2010\Projects\a1q4\Debug\q4.pdb" /SUBSYSTEM:CONSOLE /TLBID:1 /DYNAMICBASE /NXCOMPAT /IMPLIB:"C:\Users\Ho Hang\documents\visual studio 2010\Projects\a1q4\Debug\q4.lib" /MACHINE:X86 Debug\q4.exe.embed.manifest.res
Debug\q4.obj
